…
``` r
# but I'm going to want to add a column that designates whether the sample is inhibited or not.
qpcr_data_w_metadata <- all_plates2021 %>%
  left_join(., clean_meta, by = c("Sample Name" = "sample"))

qpcr_data_w_metadata %>%
  filter(Task == "UNKNOWN" &
           CT != "Undetermined") %>%
  dplyr::select(`Sample Name`, `Ct Mean`, dist_grp, tide, distance) %>%
  unique()
```

    ## # A tibble: 276 × 5
    ##    `Sample Name` `Ct Mean` dist_grp tide     distance
    ##    <chr>             <dbl> <chr>    <chr>       <dbl>
    ##  1 e00056             28.4 160      incoming      160
    ##  2 e00056             25.6 160      incoming      160
    ##  3 e00128             28.6 2000     incoming     2000
    ##  4 e00190             28.7 1680     outgoing     1680
    ##  5 e00089             26.9 <NA>     <NA>           NA
    ##  6 e00125             27.4 1920     incoming     1920
    ##  7 e00189             27.2 1680     outgoing     1680
    ##  8 e00134             26.5 0        outgoing        0
    ##  9 e00134             25.5 0        outgoing        0
    ## 10 e00120             27.6 1840     incoming     1840
    ## # ℹ 266 more rows
…
# list of samples
list2022 <- plates2022_10x %>%
  filter(Task =="UNKNOWN") %>%
  dplyr::select(`Sample Name`) %>%
  unique()

list2022
```

    ## # A tibble: 183 × 1
    ##    `Sample Name`
    ##    <chr>        
    ##  1 e01192       
    ##  2 e01256       
    ##  3 e01264       
    ##  4 e01193       
    ##  5 e01257       
    ##  6 e01265       
    ##  7 e01194       
    ##  8 e01258       
    ##  9 e01266       
    ## 10 e01195       
    ## # ℹ 173 more rows

``` r
# read in 2022 metadata 
meta2022 <- read_xlsx("../data/Amalga2022_cleanMetadata.xlsx")

meta2022
```

    ## # A tibble: 288 × 15
    ##    `Extraction ID` `Sample Code`   Project     `Sample Label`  transect     
    ##    <chr>           <chr>           <chr>       <chr>           <chr>        
    ##  1 e01192          0m_surface_AM   Amalga 2022 0m_surface_AM   perpendicular
    ##  2 e01193          0m_surface_AM   Amalga 2022 0m_surface_AM   perpendicular
    ##  3 e01194          0m_surface_AM   Amalga 2022 0m_surface_AM   perpendicular
    ##  4 e01195          0m_10m_depth_AM Amalga 2022 0m_10m_depth_AM perpendicular
    ##  5 e01196          0m_10m_depth_AM Amalga 2022 0m_10m_depth_AM perpendicular
    ##  6 e01197          0m_10m_depth_AM Amalga 2022 0m_10m_depth_AM perpendicular
    ##  7 e01198          0m_surface      Amalga 2022 0m_surface      perpendicular
    ##  8 e01199          0m_surface      Amalga 2022 0m_surface      perpendicular
    ##  9 e01200          0m_surface      Amalga 2022 0m_surface      perpendicular
    ## 10 e01201          500m_surface    Amalga 2022 500m_surface    perpendicular
    ## # ℹ 278 more rows
    ## # ℹ 10 more variables: distance_from_pens <dbl>, depth <dbl>,
    ## #   time_of_day <chr>, replicate <dbl>, Sample_Date <chr>,
    ## #   `Sampler Initials` <chr>, `Metadata Reference` <chr>,
    ## #   `Extraction Initials` <chr>, Ext_Date <dttm>, Ext_Plate <dttm>
…
``` r
list2022 %>%
  left_join(., meta2022, by = c("Sample Name" = "Extraction ID")) %>%
  filter(Sample_Date == "2022_05_05")
```

    ## # A tibble: 174 × 15
    ##    `Sample Name` `Sample Code`     Project     `Sample Label`    transect     
    ##    <chr>         <chr>             <chr>       <chr>             <chr>        
    ##  1 e01192        0m_surface_AM     Amalga 2022 0m_surface_AM     perpendicular
    ##  2 e01264        500m_10m_depth_AM Amalga 2022 500m_10m_depth_AM perpendicular
    ##  3 e01193        0m_surface_AM     Amalga 2022 0m_surface_AM     perpendicular
    ##  4 e01265        500m_10m_depth_AM Amalga 2022 500m_10m_depth_AM perpendicular
    ##  5 e01194        0m_surface_AM     Amalga 2022 0m_surface_AM     perpendicular
    ##  6 e01258        500m_surface_AM   Amalga 2022 500m_surface_AM   perpendicular
    ##  7 e01266        500m_10m_depth_AM Amalga 2022 500m_10m_depth_AM perpendicular
    ##  8 e01195        0m_10m_depth_AM   Amalga 2022 0m_10m_depth_AM   perpendicular
    ##  9 e01259        500m_surface_AM   Amalga 2022 500m_surface_AM   perpendicular
    ## 10 e01267        1000m_surface_AM  Amalga 2022 1000m_surface_AM  perpendicular
    ## # ℹ 164 more rows
    ## # ℹ 10 more variables: distance_from_pens <dbl>, depth <dbl>,
    ## #   time_of_day <chr>, replicate <dbl>, Sample_Date <chr>,
    ## #   `Sampler Initials` <chr>, `Metadata Reference` <chr>,
    ## #   `Extraction Initials` <chr>, Ext_Date <dttm>, Ext_Plate <dttm>
…
    ## Joining with `by = join_by(sample)`

``` r
merged_df_both_years %>%
  filter(year == "2022" & depth == 0)
```

    ## # A tibble: 162 × 13
    ##    sample CT           quant_per_ul quant_per_L label   tide  distance_from_pens
    ##    <chr>  <chr>               <dbl>       <dbl> <chr>   <chr>              <dbl>
    ##  1 e01192 32.188362            278.     173888. 0m_sur… outg…                  0
    ##  2 e01192 31.80571             356.     222709. 0m_sur… outg…                  0
    ##  3 e01192 32.261612            265.     165843. 0m_sur… outg…                  0
    ##  4 e01193 33.708157            104.      65078. 0m_sur… outg…                  0
    ##  5 e01193 32.88484             177.     110831. 0m_sur… outg…                  0
    ##  6 e01193 32.897076            176.     109958. 0m_sur… outg…                  0
    ##  7 e01194 30.890171            644.     402594. 0m_sur… outg…                  0
    ##  8 e01194 30.891844            643.     402159. 0m_sur… outg…                  0
    ##  9 e01194 30.88471             646.     404019. 0m_sur… outg…                  0
    ## 10 e01258 Undetermined          NA          NA  500m_s… outg…                500
    ## # ℹ 152 more rows
    ## # ℹ 6 more variables: time_of_day <chr>, depth <dbl>, transect <chr>,
    ## #   sample_date <chr>, year <chr>, log_dna_L <dbl>
…
